…
Distances

We can calculate the distance at each locus by separating them with seploc() and then mapping diss.dist() to each locus. This will give us a data frame in the end, which will be immensely useful later.

distmatcc <- epid %>%
  clonecorrect(strata = NA) %>%
  seploc() %>%
  map_df(.f = . %>% diss.dist() %>% as.vector())
distmat <- epid %>%
  seploc() %>%
  map_df(.f = . %>% diss.dist() %>% as.vector())
distmat

## # A tibble: 741 x 3
##    PrMS39A1 PrMS45A1 PrMS43A1
##       <dbl>    <dbl>    <dbl>
##  1        0        0        0
##  2        0        0        0
##  3        0        0        2
##  4        0        0        0
##  5        0        0        0
##  6        0        0        0
##  7        0        0        1
##  8        0        0        0
##  9        0        0        0
## 10        0        0        0
## # ... with 731 more rows
…
